{
  "type": "service_account",
  "project_id": "my-kubernetes-codelab-324804",
  "private_key_id": "e5088f20d4e26247edcaba17c44e6f2998422bd5",
  "private_key": "-----BEGIN PRIVATE KEY-----\nMIIEvQIBADANBgkqhkiG9w0BAQEFAASCBKcwggSjAgEAAoIBAQDUz1fYamMlu/pC\n8OnYu7P2WN+RN5Tp3WzM+drCk5fcrMj1Q3Ek34dc4EdkqYvZArpDCAni65cYAAzt\nBwOlz6lVaj0kP2VPvzYnx+7BJZ1w97J9f7Vw5A4HyO4ogAKNZWW89lOiPdm7VMYu\nJPBt1aExN1iLeygKvuzKgXs/cDcLICHTP7lrxTeuodrvIam1Hu4M3ytPTmOMmybR\nARYEL3ejvOOyTMUnnLIbvJPIflMl3+cpEAOvwwqB1nr0omX0bajTQDhVLTLtJulv\nKKAGaSZ1kUbGzX5eZPROuC1IoIRgHF/J57E2AjyjY9JXegHJIRtfqP9+1ddLgise\nOS0ALcndAgMBAAECggEABfi3f1Qk6hcnQ5+dAD7sItqFk36ayCE1f173e4RGu6OB\nlBhLYXyAQOPuPO3hBbrk3SKpnFt+BudhdXk/6fQ0zTfI9W5t+lnkPCOJGJRkoZnh\nwVHHFp7foepKfIpzB+KzgyTqXeAcbvxG/157/KkE9+uUqX1QN1T6MgiGG9abRM2Z\n6zC35pCIPkIQ0wyK6PXPb50dNrk2vlPv6ybAbZ1UJFPpkmQ5lRNbK5CKM51Q3TGT\njUeb26vMl4gB/Hd9tE3+2FFCyaRJsUUZ/dlFowIVNJfIYIRGcMJIaaGmEV5VkOcI\nUro7+cDwNlCGnY30M7MkLuMCLeJowtJgY9KHFaTy5QKBgQDufJSUgaZtTLUN8+sK\n2EOcZqDYZgByUHR0rNiU/8Cywlq5Ed4gXG2Swm/xnk4exS7fRRNSDyOEDTSY0r8Y\nplKZlu7SWLmlbpNJF0s2OmcGUJfAi0IkPHToawJgcYLpte8xc287sxyqzESGpSWR\nFRR6hosQxCK0sGmAwKDYTirtmwKBgQDkcA33xbor2yFovKii1GdxvzlWIryvdEuw\nvKKBzTOj77bRWnCYpBNi3/O2m0pyq80vlZd4ytmtP4LoVKG2S4CovIMUkGq8d+xn\nRpEPjWeTuwpfWjfVmodW7voxNJstWuKI/o3MhE0BK4SCHXB0XvJVrEQQ2YWGYmua\nVEeasSvZ5wKBgER/9A1T0AHE7pw7W1+aDpF1yO1fHvG2ujxpCSyC6U5vFK/jufGB\nmtd0kcLMvZOI/5WRuaLwRjs/r8PVhJ4H5+HFwIMaiPhDcnqj/i5tR/pAW9YqKa1O\n0CWR1vTspbWLVFDX3zM+lxVX5rbl6IxriZ5H1tnR/EX6BdO9gHWgviPRAoGAYwNG\nqpxjY1rpkjIjjeAurhjKS1FnI01u+T3p2gUNWwMt5HQk1aRYWsTjJ8ULccSRfQyD\nyPFzhCpBHV6BcTgsnfaHgkROXz5Dk0f83BbYTCoIBuhdxxHhk4alnupEUFZSVjqv\nT3QQxG8OUi9cbLQyqXuvTPZbb7H9HblmB+C/NwUCgYEA0E/pX9fFLYryGL7w1/2K\nscLuzlhKDsvm5mlbDawG9NIzvAntuf4vhZHSmVTpjP3qOAR9XDftPnTCt4EAqe9y\nkozM9s1xB3/ExyMnbezYZQO87/Rhkp6s9YbNZca4UnX72kC/JPtUPTtJGWZRaMYn\nLNVXxwNn0fgBOPIshwDPUAo=\n-----END PRIVATE KEY-----\n",
  "client_email": "bhargav@my-kubernetes-codelab-324804.iam.gserviceaccount.com",
  "client_id": "115518260843533138841",
  "auth_uri": "https://accounts.google.com/o/oauth2/auth",
  "token_uri": "https://oauth2.googleapis.com/token",
  "auth_provider_x509_cert_url": "https://www.googleapis.com/oauth2/v1/certs",
  "client_x509_cert_url": "https://www.googleapis.com/robot/v1/metadata/x509/bhargav%40my-kubernetes-codelab-324804.iam.gserviceaccount.com"
}
